%YAML 1.1
%TAG !u! tag:unity3d.com,2011:
--- !u!1001 &7100076926166420368
PrefabInstance:
  m_ObjectHideFlags: 0
  serializedVersion: 2
  m_Modification:
    m_TransformParent: {fileID: 0}
    m_Modifications:
    - target: {fileID: 6865566819814019318, guid: bb6d599d9175cd74ab3c7c014f088347, type: 3}
      propertyPath: m_RootOrder
      value: 0
      objectReference: {fileID: 0}
    - target: {fileID: 6865566819814019318, guid: bb6d599d9175cd74ab3c7c014f088347, type: 3}
      propertyPath: m_LocalPosition.x
      value: 0
      objectReference: {fileID: 0}
    - target: {fileID: 6865566819814019318, guid: bb6d599d9175cd74ab3c7c014f088347, type: 3}
      propertyPath: m_LocalPosition.y
      value: 0
      objectReference: {fileID: 0}
    - target: {fileID: 6865566819814019318, guid: bb6d599d9175cd74ab3c7c014f088347, type: 3}
      propertyPath: m_LocalPosition.z
      value: 0
      objectReference: {fileID: 0}
    - target: {fileID: 6865566819814019318, guid: bb6d599d9175cd74ab3c7c014f088347, type: 3}
      propertyPath: m_LocalRotation.w
      value: 1
      objectReference: {fileID: 0}
    - target: {fileID: 6865566819814019318, guid: bb6d599d9175cd74ab3c7c014f088347, type: 3}
      propertyPath: m_LocalRotation.x
      value: 0
      objectReference: {fileID: 0}
    - target: {fileID: 6865566819814019318, guid: bb6d599d9175cd74ab3c7c014f088347, type: 3}
      propertyPath: m_LocalRotation.y
      value: 0
      objectReference: {fileID: 0}
    - target: {fileID: 6865566819814019318, guid: bb6d599d9175cd74ab3c7c014f088347, type: 3}
      propertyPath: m_LocalRotation.z
      value: 0
      objectReference: {fileID: 0}
    - target: {fileID: 6865566819814019318, guid: bb6d599d9175cd74ab3c7c014f088347, type: 3}
      propertyPath: m_LocalEulerAnglesHint.x
      value: 0
      objectReference: {fileID: 0}
    - target: {fileID: 6865566819814019318, guid: bb6d599d9175cd74ab3c7c014f088347, type: 3}
      propertyPath: m_LocalEulerAnglesHint.y
      value: 0
      objectReference: {fileID: 0}
    - target: {fileID: 6865566819814019318, guid: bb6d599d9175cd74ab3c7c014f088347, type: 3}
      propertyPath: m_LocalEulerAnglesHint.z
      value: 0
      objectReference: {fileID: 0}
    - target: {fileID: 6865566819814019319, guid: bb6d599d9175cd74ab3c7c014f088347, type: 3}
      propertyPath: m_Name
      value: 23 - 1
      objectReference: {fileID: 0}
    - target: {fileID: 6865566820461902264, guid: bb6d599d9175cd74ab3c7c014f088347, type: 3}
      propertyPath: editorData._bezierPath.points.Array.size
      value: 16
      objectReference: {fileID: 0}
    - target: {fileID: 6865566820461902264, guid: bb6d599d9175cd74ab3c7c014f088347, type: 3}
      propertyPath: editorData._bezierPath.points.Array.data[4].y
      value: 14.458942
      objectReference: {fileID: 0}
    - target: {fileID: 6865566820461902264, guid: bb6d599d9175cd74ab3c7c014f088347, type: 3}
      propertyPath: editorData._bezierPath.points.Array.data[5].x
      value: -22.007729
      objectReference: {fileID: 0}
    - target: {fileID: 6865566820461902264, guid: bb6d599d9175cd74ab3c7c014f088347, type: 3}
      propertyPath: editorData._bezierPath.points.Array.data[5].y
      value: 29.798168
      objectReference: {fileID: 0}
    - target: {fileID: 6865566820461902264, guid: bb6d599d9175cd74ab3c7c014f088347, type: 3}
      propertyPath: editorData._bezierPath.points.Array.data[6].x
      value: -10.762376
      objectReference: {fileID: 0}
    - target: {fileID: 6865566820461902264, guid: bb6d599d9175cd74ab3c7c014f088347, type: 3}
      propertyPath: editorData._bezierPath.points.Array.data[6].y
      value: 29.80062
      objectReference: {fileID: 0}
    - target: {fileID: 6865566820461902264, guid: bb6d599d9175cd74ab3c7c014f088347, type: 3}
      propertyPath: editorData._bezierPath.points.Array.data[7].x
      value: 3.3394349
      objectReference: {fileID: 0}
    - target: {fileID: 6865566820461902264, guid: bb6d599d9175cd74ab3c7c014f088347, type: 3}
      propertyPath: editorData._bezierPath.points.Array.data[7].y
      value: 29.803692
      objectReference: {fileID: 0}
    - target: {fileID: 6865566820461902264, guid: bb6d599d9175cd74ab3c7c014f088347, type: 3}
      propertyPath: editorData._bezierPath.points.Array.data[8].x
      value: 0.9916973
      objectReference: {fileID: 0}
    - target: {fileID: 6865566820461902264, guid: bb6d599d9175cd74ab3c7c014f088347, type: 3}
      propertyPath: editorData._bezierPath.points.Array.data[8].y
      value: 14.478706
      objectReference: {fileID: 0}
    - target: {fileID: 6865566820461902264, guid: bb6d599d9175cd74ab3c7c014f088347, type: 3}
      propertyPath: editorData._bezierPath.points.Array.data[9].x
      value: 12.2719
      objectReference: {fileID: 0}
    - target: {fileID: 6865566820461902264, guid: bb6d599d9175cd74ab3c7c014f088347, type: 3}
      propertyPath: editorData._bezierPath.points.Array.data[9].y
      value: 14.593414
      objectReference: {fileID: 0}
    - target: {fileID: 6865566820461902264, guid: bb6d599d9175cd74ab3c7c014f088347, type: 3}
      propertyPath: editorData._bezierPath.points.Array.data[10].x
      value: 24.521675
      objectReference: {fileID: 0}
    - target: {fileID: 6865566820461902264, guid: bb6d599d9175cd74ab3c7c014f088347, type: 3}
      propertyPath: editorData._bezierPath.points.Array.data[10].y
      value: 14.717981
      objectReference: {fileID: 0}
    - target: {fileID: 6865566820461902264, guid: bb6d599d9175cd74ab3c7c014f088347, type: 3}
      propertyPath: editorData._bezierPath.points.Array.data[11].x
      value: 25
      objectReference: {fileID: 0}
    - target: {fileID: 6865566820461902264, guid: bb6d599d9175cd74ab3c7c014f088347, type: 3}
      propertyPath: editorData._bezierPath.points.Array.data[11].y
      value: 27.21815
      objectReference: {fileID: 0}
    - target: {fileID: 6865566820461902264, guid: bb6d599d9175cd74ab3c7c014f088347, type: 3}
      propertyPath: editorData._bezierPath.points.Array.data[12].x
      value: 25
      objectReference: {fileID: 0}
    - target: {fileID: 6865566820461902264, guid: bb6d599d9175cd74ab3c7c014f088347, type: 3}
      propertyPath: editorData._bezierPath.points.Array.data[12].y
      value: 30
      objectReference: {fileID: 0}
    - target: {fileID: 6865566820461902264, guid: bb6d599d9175cd74ab3c7c014f088347, type: 3}
      propertyPath: editorData._bezierPath.points.Array.data[13].x
      value: 25
      objectReference: {fileID: 0}
    - target: {fileID: 6865566820461902264, guid: bb6d599d9175cd74ab3c7c014f088347, type: 3}
      propertyPath: editorData._bezierPath.points.Array.data[13].y
      value: 33.4598
      objectReference: {fileID: 0}
    - target: {fileID: 6865566820461902264, guid: bb6d599d9175cd74ab3c7c014f088347, type: 3}
      propertyPath: editorData._bezierPath.points.Array.data[14].x
      value: 25
      objectReference: {fileID: 0}
    - target: {fileID: 6865566820461902264, guid: bb6d599d9175cd74ab3c7c014f088347, type: 3}
      propertyPath: editorData._bezierPath.points.Array.data[14].y
      value: 38.114452
      objectReference: {fileID: 0}
    - target: {fileID: 6865566820461902264, guid: bb6d599d9175cd74ab3c7c014f088347, type: 3}
      propertyPath: editorData._bezierPath.points.Array.data[15].x
      value: 25
      objectReference: {fileID: 0}
    - target: {fileID: 6865566820461902264, guid: bb6d599d9175cd74ab3c7c014f088347, type: 3}
      propertyPath: editorData._bezierPath.points.Array.data[15].y
      value: 40
      objectReference: {fileID: 0}
    - target: {fileID: 6865566820461902264, guid: bb6d599d9175cd74ab3c7c014f088347, type: 3}
      propertyPath: editorData._bezierPath.perAnchorNormalsAngle.Array.size
      value: 6
      objectReference: {fileID: 0}
    - target: {fileID: 6865566820601173170, guid: bb6d599d9175cd74ab3c7c014f088347, type: 3}
      propertyPath: m_LocalPosition.x
      value: 0
      objectReference: {fileID: 0}
    - target: {fileID: 6865566820601173170, guid: bb6d599d9175cd74ab3c7c014f088347, type: 3}
      propertyPath: m_LocalPosition.y
      value: 0
      objectReference: {fileID: 0}
    - target: {fileID: 6865566820601173170, guid: bb6d599d9175cd74ab3c7c014f088347, type: 3}
      propertyPath: m_LocalPosition.z
      value: 0
      objectReference: {fileID: 0}
    - target: {fileID: 6865566820601173173, guid: bb6d599d9175cd74ab3c7c014f088347, type: 3}
      propertyPath: m_Mesh
      value: 
      objectReference: {fileID: 0}
    - target: {fileID: 6865566820601173175, guid: bb6d599d9175cd74ab3c7c014f088347, type: 3}
      propertyPath: m_Mesh
      value: 
      objectReference: {fileID: 0}
    m_RemovedComponents: []
  m_SourcePrefab: {fileID: 100100000, guid: bb6d599d9175cd74ab3c7c014f088347, type: 3}
