%YAML 1.1
%TAG !u! tag:unity3d.com,2011:
--- !u!1001 &2425689737587745242
PrefabInstance:
  m_ObjectHideFlags: 0
  serializedVersion: 2
  m_Modification:
    m_TransformParent: {fileID: 0}
    m_Modifications:
    - target: {fileID: 582044006076499534, guid: af6d552a4d472b64d97a61f7f0187423, type: 3}
      propertyPath: m_Mesh
      value: 
      objectReference: {fileID: 0}
    - target: {fileID: 582044006076499536, guid: af6d552a4d472b64d97a61f7f0187423, type: 3}
      propertyPath: m_Mesh
      value: 
      objectReference: {fileID: 0}
    - target: {fileID: 582044006076499539, guid: af6d552a4d472b64d97a61f7f0187423, type: 3}
      propertyPath: m_LocalPosition.x
      value: 0
      objectReference: {fileID: 0}
    - target: {fileID: 582044006076499539, guid: af6d552a4d472b64d97a61f7f0187423, type: 3}
      propertyPath: m_LocalPosition.y
      value: 0
      objectReference: {fileID: 0}
    - target: {fileID: 582044006076499539, guid: af6d552a4d472b64d97a61f7f0187423, type: 3}
      propertyPath: m_LocalPosition.z
      value: 0
      objectReference: {fileID: 0}
    - target: {fileID: 582044006488774612, guid: af6d552a4d472b64d97a61f7f0187423, type: 3}
      propertyPath: m_Name
      value: 31 - 1
      objectReference: {fileID: 0}
    - target: {fileID: 582044006488774613, guid: af6d552a4d472b64d97a61f7f0187423, type: 3}
      propertyPath: m_RootOrder
      value: 0
      objectReference: {fileID: 0}
    - target: {fileID: 582044006488774613, guid: af6d552a4d472b64d97a61f7f0187423, type: 3}
      propertyPath: m_LocalPosition.x
      value: 0
      objectReference: {fileID: 0}
    - target: {fileID: 582044006488774613, guid: af6d552a4d472b64d97a61f7f0187423, type: 3}
      propertyPath: m_LocalPosition.y
      value: 0
      objectReference: {fileID: 0}
    - target: {fileID: 582044006488774613, guid: af6d552a4d472b64d97a61f7f0187423, type: 3}
      propertyPath: m_LocalPosition.z
      value: 0
      objectReference: {fileID: 0}
    - target: {fileID: 582044006488774613, guid: af6d552a4d472b64d97a61f7f0187423, type: 3}
      propertyPath: m_LocalRotation.w
      value: 1
      objectReference: {fileID: 0}
    - target: {fileID: 582044006488774613, guid: af6d552a4d472b64d97a61f7f0187423, type: 3}
      propertyPath: m_LocalRotation.x
      value: 0
      objectReference: {fileID: 0}
    - target: {fileID: 582044006488774613, guid: af6d552a4d472b64d97a61f7f0187423, type: 3}
      propertyPath: m_LocalRotation.y
      value: 0
      objectReference: {fileID: 0}
    - target: {fileID: 582044006488774613, guid: af6d552a4d472b64d97a61f7f0187423, type: 3}
      propertyPath: m_LocalRotation.z
      value: 0
      objectReference: {fileID: 0}
    - target: {fileID: 582044006488774613, guid: af6d552a4d472b64d97a61f7f0187423, type: 3}
      propertyPath: m_LocalEulerAnglesHint.x
      value: 0
      objectReference: {fileID: 0}
    - target: {fileID: 582044006488774613, guid: af6d552a4d472b64d97a61f7f0187423, type: 3}
      propertyPath: m_LocalEulerAnglesHint.y
      value: 0
      objectReference: {fileID: 0}
    - target: {fileID: 582044006488774613, guid: af6d552a4d472b64d97a61f7f0187423, type: 3}
      propertyPath: m_LocalEulerAnglesHint.z
      value: 0
      objectReference: {fileID: 0}
    - target: {fileID: 582044007221530276, guid: af6d552a4d472b64d97a61f7f0187423, type: 3}
      propertyPath: editorData._bezierPath.points.Array.size
      value: 16
      objectReference: {fileID: 0}
    - target: {fileID: 582044007221530276, guid: af6d552a4d472b64d97a61f7f0187423, type: 3}
      propertyPath: editorData._bezierPath.points.Array.data[4].y
      value: 13.600733
      objectReference: {fileID: 0}
    - target: {fileID: 582044007221530276, guid: af6d552a4d472b64d97a61f7f0187423, type: 3}
      propertyPath: editorData._bezierPath.points.Array.data[5].x
      value: 21.582092
      objectReference: {fileID: 0}
    - target: {fileID: 582044007221530276, guid: af6d552a4d472b64d97a61f7f0187423, type: 3}
      propertyPath: editorData._bezierPath.points.Array.data[5].y
      value: 29.275183
      objectReference: {fileID: 0}
    - target: {fileID: 582044007221530276, guid: af6d552a4d472b64d97a61f7f0187423, type: 3}
      propertyPath: editorData._bezierPath.points.Array.data[6].x
      value: 3.8391771
      objectReference: {fileID: 0}
    - target: {fileID: 582044007221530276, guid: af6d552a4d472b64d97a61f7f0187423, type: 3}
      propertyPath: editorData._bezierPath.points.Array.data[6].y
      value: 29.892845
      objectReference: {fileID: 0}
    - target: {fileID: 582044007221530276, guid: af6d552a4d472b64d97a61f7f0187423, type: 3}
      propertyPath: editorData._bezierPath.points.Array.data[7].x
      value: -12.595717
      objectReference: {fileID: 0}
    - target: {fileID: 582044007221530276, guid: af6d552a4d472b64d97a61f7f0187423, type: 3}
      propertyPath: editorData._bezierPath.points.Array.data[7].y
      value: 30.464973
      objectReference: {fileID: 0}
    - target: {fileID: 582044007221530276, guid: af6d552a4d472b64d97a61f7f0187423, type: 3}
      propertyPath: editorData._bezierPath.points.Array.data[8].x
      value: -17.978535
      objectReference: {fileID: 0}
    - target: {fileID: 582044007221530276, guid: af6d552a4d472b64d97a61f7f0187423, type: 3}
      propertyPath: editorData._bezierPath.points.Array.data[8].y
      value: 13.853383
      objectReference: {fileID: 0}
    - target: {fileID: 582044007221530276, guid: af6d552a4d472b64d97a61f7f0187423, type: 3}
      propertyPath: editorData._bezierPath.points.Array.data[9].x
      value: -32.07545
      objectReference: {fileID: 0}
    - target: {fileID: 582044007221530276, guid: af6d552a4d472b64d97a61f7f0187423, type: 3}
      propertyPath: editorData._bezierPath.points.Array.data[9].y
      value: 13.727545
      objectReference: {fileID: 0}
    - target: {fileID: 582044007221530276, guid: af6d552a4d472b64d97a61f7f0187423, type: 3}
      propertyPath: editorData._bezierPath.points.Array.data[10].x
      value: -46.66195
      objectReference: {fileID: 0}
    - target: {fileID: 582044007221530276, guid: af6d552a4d472b64d97a61f7f0187423, type: 3}
      propertyPath: editorData._bezierPath.points.Array.data[10].y
      value: 13.597336
      objectReference: {fileID: 0}
    - target: {fileID: 582044007221530276, guid: af6d552a4d472b64d97a61f7f0187423, type: 3}
      propertyPath: editorData._bezierPath.points.Array.data[11].x
      value: -50
      objectReference: {fileID: 0}
    - target: {fileID: 582044007221530276, guid: af6d552a4d472b64d97a61f7f0187423, type: 3}
      propertyPath: editorData._bezierPath.points.Array.data[11].y
      value: 27.09543
      objectReference: {fileID: 0}
    - target: {fileID: 582044007221530276, guid: af6d552a4d472b64d97a61f7f0187423, type: 3}
      propertyPath: editorData._bezierPath.points.Array.data[12].x
      value: -50
      objectReference: {fileID: 0}
    - target: {fileID: 582044007221530276, guid: af6d552a4d472b64d97a61f7f0187423, type: 3}
      propertyPath: editorData._bezierPath.points.Array.data[12].y
      value: 30
      objectReference: {fileID: 0}
    - target: {fileID: 582044007221530276, guid: af6d552a4d472b64d97a61f7f0187423, type: 3}
      propertyPath: editorData._bezierPath.points.Array.data[13].x
      value: -50
      objectReference: {fileID: 0}
    - target: {fileID: 582044007221530276, guid: af6d552a4d472b64d97a61f7f0187423, type: 3}
      propertyPath: editorData._bezierPath.points.Array.data[13].y
      value: 33.4598
      objectReference: {fileID: 0}
    - target: {fileID: 582044007221530276, guid: af6d552a4d472b64d97a61f7f0187423, type: 3}
      propertyPath: editorData._bezierPath.points.Array.data[14].x
      value: -50
      objectReference: {fileID: 0}
    - target: {fileID: 582044007221530276, guid: af6d552a4d472b64d97a61f7f0187423, type: 3}
      propertyPath: editorData._bezierPath.points.Array.data[14].y
      value: 38.114452
      objectReference: {fileID: 0}
    - target: {fileID: 582044007221530276, guid: af6d552a4d472b64d97a61f7f0187423, type: 3}
      propertyPath: editorData._bezierPath.points.Array.data[15].x
      value: -50
      objectReference: {fileID: 0}
    - target: {fileID: 582044007221530276, guid: af6d552a4d472b64d97a61f7f0187423, type: 3}
      propertyPath: editorData._bezierPath.points.Array.data[15].y
      value: 40
      objectReference: {fileID: 0}
    - target: {fileID: 582044007221530276, guid: af6d552a4d472b64d97a61f7f0187423, type: 3}
      propertyPath: editorData._bezierPath.perAnchorNormalsAngle.Array.size
      value: 6
      objectReference: {fileID: 0}
    m_RemovedComponents: []
  m_SourcePrefab: {fileID: 100100000, guid: af6d552a4d472b64d97a61f7f0187423, type: 3}
