%YAML 1.1
%TAG !u! tag:unity3d.com,2011:
--- !u!1001 &8425317681081449593
PrefabInstance:
  m_ObjectHideFlags: 0
  serializedVersion: 2
  m_Modification:
    m_TransformParent: {fileID: 0}
    m_Modifications:
    - target: {fileID: 1381272858028505458, guid: 4e4e017022f49384db80ba671332ce59, type: 3}
      propertyPath: editorData._bezierPath.points.Array.size
      value: 13
      objectReference: {fileID: 0}
    - target: {fileID: 1381272858028505458, guid: 4e4e017022f49384db80ba671332ce59, type: 3}
      propertyPath: editorData._bezierPath.points.Array.data[4].y
      value: 15.225206
      objectReference: {fileID: 0}
    - target: {fileID: 1381272858028505458, guid: 4e4e017022f49384db80ba671332ce59, type: 3}
      propertyPath: editorData._bezierPath.points.Array.data[5].x
      value: -8.290598
      objectReference: {fileID: 0}
    - target: {fileID: 1381272858028505458, guid: 4e4e017022f49384db80ba671332ce59, type: 3}
      propertyPath: editorData._bezierPath.points.Array.data[5].y
      value: 23.206429
      objectReference: {fileID: 0}
    - target: {fileID: 1381272858028505458, guid: 4e4e017022f49384db80ba671332ce59, type: 3}
      propertyPath: editorData._bezierPath.points.Array.data[6].x
      value: -14.808855
      objectReference: {fileID: 0}
    - target: {fileID: 1381272858028505458, guid: 4e4e017022f49384db80ba671332ce59, type: 3}
      propertyPath: editorData._bezierPath.points.Array.data[6].y
      value: 25.824331
      objectReference: {fileID: 0}
    - target: {fileID: 1381272858028505458, guid: 4e4e017022f49384db80ba671332ce59, type: 3}
      propertyPath: editorData._bezierPath.points.Array.data[7].x
      value: -20.765238
      objectReference: {fileID: 0}
    - target: {fileID: 1381272858028505458, guid: 4e4e017022f49384db80ba671332ce59, type: 3}
      propertyPath: editorData._bezierPath.points.Array.data[7].y
      value: 28.216572
      objectReference: {fileID: 0}
    - target: {fileID: 1381272858028505458, guid: 4e4e017022f49384db80ba671332ce59, type: 3}
      propertyPath: editorData._bezierPath.points.Array.data[8].y
      value: 25.225206
      objectReference: {fileID: 0}
    - target: {fileID: 1381272858028505458, guid: 4e4e017022f49384db80ba671332ce59, type: 3}
      propertyPath: editorData._bezierPath.points.Array.data[9].y
      value: 30
      objectReference: {fileID: 0}
    - target: {fileID: 1381272858028505458, guid: 4e4e017022f49384db80ba671332ce59, type: 3}
      propertyPath: editorData._bezierPath.points.Array.data[10].x
      value: -50
      objectReference: {fileID: 0}
    - target: {fileID: 1381272858028505458, guid: 4e4e017022f49384db80ba671332ce59, type: 3}
      propertyPath: editorData._bezierPath.points.Array.data[10].y
      value: 33.4598
      objectReference: {fileID: 0}
    - target: {fileID: 1381272858028505458, guid: 4e4e017022f49384db80ba671332ce59, type: 3}
      propertyPath: editorData._bezierPath.points.Array.data[11].x
      value: -50
      objectReference: {fileID: 0}
    - target: {fileID: 1381272858028505458, guid: 4e4e017022f49384db80ba671332ce59, type: 3}
      propertyPath: editorData._bezierPath.points.Array.data[11].y
      value: 38.114452
      objectReference: {fileID: 0}
    - target: {fileID: 1381272858028505458, guid: 4e4e017022f49384db80ba671332ce59, type: 3}
      propertyPath: editorData._bezierPath.points.Array.data[12].x
      value: -50
      objectReference: {fileID: 0}
    - target: {fileID: 1381272858028505458, guid: 4e4e017022f49384db80ba671332ce59, type: 3}
      propertyPath: editorData._bezierPath.points.Array.data[12].y
      value: 40
      objectReference: {fileID: 0}
    - target: {fileID: 1381272858028505458, guid: 4e4e017022f49384db80ba671332ce59, type: 3}
      propertyPath: editorData._bezierPath.perAnchorNormalsAngle.Array.size
      value: 5
      objectReference: {fileID: 0}
    - target: {fileID: 1381272858229672832, guid: 4e4e017022f49384db80ba671332ce59, type: 3}
      propertyPath: m_LocalPosition.x
      value: 0
      objectReference: {fileID: 0}
    - target: {fileID: 1381272858229672832, guid: 4e4e017022f49384db80ba671332ce59, type: 3}
      propertyPath: m_LocalPosition.y
      value: 0
      objectReference: {fileID: 0}
    - target: {fileID: 1381272858229672832, guid: 4e4e017022f49384db80ba671332ce59, type: 3}
      propertyPath: m_LocalPosition.z
      value: 0
      objectReference: {fileID: 0}
    - target: {fileID: 1381272858229672833, guid: 4e4e017022f49384db80ba671332ce59, type: 3}
      propertyPath: m_Mesh
      value: 
      objectReference: {fileID: 0}
    - target: {fileID: 1381272858229672839, guid: 4e4e017022f49384db80ba671332ce59, type: 3}
      propertyPath: m_Mesh
      value: 
      objectReference: {fileID: 0}
    - target: {fileID: 1381272859193502916, guid: 4e4e017022f49384db80ba671332ce59, type: 3}
      propertyPath: m_Name
      value: 21 - 1
      objectReference: {fileID: 0}
    - target: {fileID: 1381272859193502917, guid: 4e4e017022f49384db80ba671332ce59, type: 3}
      propertyPath: m_RootOrder
      value: 0
      objectReference: {fileID: 0}
    - target: {fileID: 1381272859193502917, guid: 4e4e017022f49384db80ba671332ce59, type: 3}
      propertyPath: m_LocalPosition.x
      value: 0
      objectReference: {fileID: 0}
    - target: {fileID: 1381272859193502917, guid: 4e4e017022f49384db80ba671332ce59, type: 3}
      propertyPath: m_LocalPosition.y
      value: 0
      objectReference: {fileID: 0}
    - target: {fileID: 1381272859193502917, guid: 4e4e017022f49384db80ba671332ce59, type: 3}
      propertyPath: m_LocalPosition.z
      value: 0
      objectReference: {fileID: 0}
    - target: {fileID: 1381272859193502917, guid: 4e4e017022f49384db80ba671332ce59, type: 3}
      propertyPath: m_LocalRotation.w
      value: 1
      objectReference: {fileID: 0}
    - target: {fileID: 1381272859193502917, guid: 4e4e017022f49384db80ba671332ce59, type: 3}
      propertyPath: m_LocalRotation.x
      value: 0
      objectReference: {fileID: 0}
    - target: {fileID: 1381272859193502917, guid: 4e4e017022f49384db80ba671332ce59, type: 3}
      propertyPath: m_LocalRotation.y
      value: 0
      objectReference: {fileID: 0}
    - target: {fileID: 1381272859193502917, guid: 4e4e017022f49384db80ba671332ce59, type: 3}
      propertyPath: m_LocalRotation.z
      value: 0
      objectReference: {fileID: 0}
    - target: {fileID: 1381272859193502917, guid: 4e4e017022f49384db80ba671332ce59, type: 3}
      propertyPath: m_LocalEulerAnglesHint.x
      value: 0
      objectReference: {fileID: 0}
    - target: {fileID: 1381272859193502917, guid: 4e4e017022f49384db80ba671332ce59, type: 3}
      propertyPath: m_LocalEulerAnglesHint.y
      value: 0
      objectReference: {fileID: 0}
    - target: {fileID: 1381272859193502917, guid: 4e4e017022f49384db80ba671332ce59, type: 3}
      propertyPath: m_LocalEulerAnglesHint.z
      value: 0
      objectReference: {fileID: 0}
    m_RemovedComponents: []
  m_SourcePrefab: {fileID: 100100000, guid: 4e4e017022f49384db80ba671332ce59, type: 3}
